<svg width="114" height="114" viewBox="0 0 114 114" fill="none" xmlns="http://www.w3.org/2000/svg">
<mask id="mask0" mask-type="alpha" maskUnits="userSpaceOnUse" x="0" y="0" width="114" height="114">
<circle cx="57" cy="57" r="57" fill="#C4C4C4"/>
</mask>
<g mask="url(#mask0)">
<path d="M29.2506 -24.2812H-9.5389V44.1773H29.2506V-24.2812Z" fill="#E0E0E0"/>
<path d="M29.4108 44.3389H-9.70053V-24.4414H29.4108V44.3389ZM-9.37871 44.0171H29.089V-24.1196H-9.37871V44.0171Z" fill="#E0E0E0"/>
<path d="M29.6286 -7.67589V-8.10714H21.3641V-24.6586H20.8074V-8.10714H11.0979V-25.1445H8.94169V-8.10714H-1.03487V-24.6586H-1.6045V-8.10714H-9.57931V-7.67589H-1.6045V8.86911H-9.57931V11.035H-1.6045V28.259H-9.57931V28.6903H-1.6045V44.17H-1.04452V28.6903H8.93204V43.6873H11.0979V28.6903H20.8009V44.17H21.3577V28.6903H29.6221V28.259H21.3641V11.035H29.6286V8.86911H21.3641V-7.67589H29.6286ZM-1.04452 -7.67589H8.93204V8.86911H-1.04452V-7.67589ZM-1.04452 28.259V11.035H8.93204V28.259H-1.04452ZM20.8074 28.259H11.0979V11.035H20.8009L20.8074 28.259ZM20.8074 8.86911H11.0979V-7.67589H20.8009L20.8074 8.86911Z" fill="#FAFAFA"/>
<path d="M86.995 56.4531H84.6971V65.5897H86.995V56.4531Z" fill="#EBEBEB"/>
<path d="M115.993 56.4531H113.695V65.5897H115.993V56.4531Z" fill="#EBEBEB"/>
<path d="M102.275 56.4531H99.9775V65.5897H102.275V56.4531Z" fill="#E0E0E0"/>
<path d="M116.04 35.3867H84.6971V56.4534H116.04V35.3867Z" fill="#EBEBEB"/>
<path d="M113.078 45.9182C113.076 45.8786 113.076 45.8388 113.078 45.7992C113.078 45.7155 113.078 45.6029 113.078 45.458C113.078 45.1523 113.078 44.7114 113.078 44.1418C113.078 42.9929 113.062 41.3258 113.052 39.2179L113.104 39.2694L87.876 39.3015L87.9597 39.2179V40.0707C87.9597 40.3571 87.9597 40.6403 87.9597 40.9267V45.9118L87.876 45.8281L105.872 45.8668L111.173 45.8893H112.602H112.975H113.107H112.985H112.624H111.212L105.93 45.915L87.876 45.9504H87.7956V42.6228C87.7956 42.0628 87.7956 41.4996 87.7956 40.9332V39.2243L87.8824 39.1406L113.11 39.1728H113.117V39.2243C113.117 41.3451 113.097 43.0218 113.091 44.1772C113.091 44.7436 113.091 45.1781 113.091 45.4838C113.091 45.6254 113.091 45.7348 113.091 45.8056C113.091 45.8764 113.078 45.9182 113.078 45.9182Z" fill="#E0E0E0"/>
<path d="M101.568 42.5687C101.568 42.787 101.503 43.0004 101.382 43.182C101.26 43.3635 101.088 43.505 100.886 43.5885C100.685 43.6721 100.463 43.6939 100.249 43.6514C100.034 43.6088 99.8378 43.5036 99.6834 43.3492C99.529 43.1949 99.4239 42.9982 99.3813 42.7841C99.3387 42.5699 99.3606 42.348 99.4441 42.1463C99.5277 41.9446 99.6691 41.7722 99.8507 41.6509C100.032 41.5296 100.246 41.4648 100.464 41.4648C100.757 41.4648 101.037 41.5811 101.244 41.7882C101.452 41.9952 101.568 42.2759 101.568 42.5687Z" fill="#E0E0E0"/>
<path d="M89.3936 27.3516L90.6295 29.128C90.6295 29.128 87.8489 29.9004 87.8489 32.3688C87.8489 34.8372 89.5481 35.3006 91.389 35.3006C93.2298 35.3006 95.0159 34.76 94.929 32.2916C94.8421 29.8232 92.5347 28.8963 92.5347 28.8963L93.6932 27.3516H89.3936Z" fill="#F5F5F5"/>
<path d="M124.28 30.6211V35.1427H104.833C104.235 35.1427 103.662 34.9054 103.24 34.4829C102.817 34.0604 102.58 33.4874 102.58 32.89C102.58 32.2925 102.817 31.7195 103.24 31.297C103.662 30.8745 104.235 30.6372 104.833 30.6372" fill="#E0E0E0"/>
<path d="M124.28 26.2812V30.8029H104.833C104.235 30.8029 103.662 30.5655 103.24 30.1431C102.817 29.7206 102.58 29.1476 102.58 28.5501C102.58 27.9526 102.817 27.3796 103.24 26.9572C103.662 26.5347 104.235 26.2973 104.833 26.2973L124.28 26.2812Z" fill="#F5F5F5"/>
<path d="M115.598 -0.195312H61.0266V2.96179H115.598V-0.195312Z" fill="#EBEBEB"/>
<path d="M73.1731 2.96094H71.3741V8.42552H73.1731V2.96094Z" fill="#E0E0E0"/>
<path d="M103.107 2.96094H101.308V8.42552H103.107V2.96094Z" fill="#E0E0E0"/>
<path d="M54.2327 123.293C84.8642 123.293 109.696 111.404 109.696 96.7366C109.696 82.0696 84.8642 70.1797 54.2327 70.1797C23.6011 70.1797 -1.23059 82.0696 -1.23059 96.7366C-1.23059 111.404 23.6011 123.293 54.2327 123.293Z" fill="#263238"/>
<path opacity="0.5" d="M85.5671 19.0565C85.5671 19.0565 83.3465 17.663 80.8008 22.9538C78.2552 28.2446 77.3155 31.2891 77.3155 31.2891C77.3155 31.2891 76.6364 32.3994 75.8673 31.701C75.0981 31.0026 74.02 28.9944 72.7488 29.3903C71.4293 29.799 71.027 31.2923 71.3328 33.4614C71.6385 35.6305 72.1244 40.4128 72.1695 40.844C72.2146 41.2753 71.9828 41.9028 71.381 41.5102C70.7792 41.1176 67.2939 37.4102 65.6332 39.1705C63.9726 40.9309 65.8102 46.8396 66.0001 47.4897C66.19 48.1398 66.0677 48.4198 65.762 48.5903C65.4562 48.7609 64.3974 47.4028 63.3644 46.3891C62.3313 45.3753 60.9507 44.3809 60.0786 45.4751C59.2064 46.5693 59.0197 51.0394 63.4352 58.1904L65.688 61.37L69.5981 61.0482C77.9173 59.88 81.2385 56.8838 81.5249 55.5128C81.8114 54.1418 80.1668 53.717 78.7251 53.5818C77.2833 53.4467 75.5647 53.4885 75.5068 53.1442C75.4489 52.7998 75.5808 52.5263 76.202 52.2559C76.8231 51.9856 82.5419 49.6298 82.838 47.2258C83.1341 44.8218 78.0492 44.5096 77.367 44.2972C76.6847 44.0848 77.0226 43.5055 77.367 43.2674C77.7113 43.0292 81.718 40.3484 83.5814 39.1963C85.4448 38.0442 86.3362 36.7826 85.8116 35.505C85.3032 34.2756 83.0697 34.7261 82.0399 34.5813C81.01 34.4365 81.4316 33.2007 81.4316 33.2007C81.4316 33.2007 83.1727 30.536 85.6153 25.2001C88.058 19.8643 85.5059 19.034 85.5059 19.034" fill="#70E0DB"/>
<path d="M83.2796 23.7969C83.2678 23.8367 83.2527 23.8754 83.2346 23.9127L83.093 24.2346C82.961 24.5339 82.7711 24.9587 82.5265 25.5025C82.0342 26.6032 81.31 28.1898 80.4025 30.1465C78.5938 34.0631 76.045 39.4504 73.2097 45.3881C70.3744 51.3257 67.8288 56.7131 65.9751 60.6297C65.0611 62.5606 64.3177 64.1504 63.8028 65.2511L63.2074 66.5062L63.0497 66.828C63.0324 66.8655 63.0131 66.902 62.9918 66.9375C63 66.897 63.0141 66.858 63.0336 66.8216L63.1785 66.4998L63.7417 65.2318C64.234 64.1311 64.9614 62.5445 65.8657 60.5846C67.6743 56.6712 70.2232 51.2839 73.0585 45.343C75.8937 39.4021 78.4394 34.0277 80.2963 30.1272C81.2103 28.1962 81.9505 26.6032 82.4686 25.5058L83.0608 24.2474L83.2217 23.9256C83.235 23.8802 83.2545 23.8369 83.2796 23.7969Z" fill="#263238"/>
<path d="M74.1458 32.2617C74.2921 32.5806 74.4115 32.9111 74.503 33.2497C74.6961 33.8676 74.9407 34.7301 75.1917 35.6859C75.4428 36.6418 75.6455 37.4624 75.8161 38.1382C75.9184 38.4727 75.999 38.8135 76.0574 39.1584C75.9066 38.8418 75.788 38.5108 75.7034 38.1704C75.5136 37.5493 75.2786 36.6836 75.0308 35.7278L74.3872 33.2819C74.2806 32.9486 74.1999 32.6075 74.1458 32.2617Z" fill="#263238"/>
<path d="M76.4296 39.2175C76.4296 39.1757 78.1675 38.5738 80.3462 37.9077C82.525 37.2415 84.295 36.7105 84.3111 36.7523C84.3272 36.7942 82.57 37.396 80.3945 38.0654C78.219 38.7347 76.4296 39.2625 76.4296 39.2175Z" fill="#263238"/>
<path d="M71.6519 48.1472C72.0075 48.1058 72.3656 48.0886 72.7235 48.0958C73.3672 48.0797 74.294 48.0539 75.2981 47.9896C76.3022 47.9252 77.213 47.8447 77.8727 47.7836C78.2267 47.7331 78.5836 47.7062 78.9412 47.7031C78.596 47.8003 78.2427 47.866 77.8856 47.8994C77.242 47.9928 76.3215 48.0958 75.311 48.1569C74.3005 48.218 73.3801 48.2277 72.7364 48.2148C72.3736 48.2257 72.0105 48.2031 71.6519 48.1472Z" fill="#263238"/>
<path d="M68.2108 42.3047C68.421 42.5599 68.6094 42.8322 68.774 43.1189C69.0958 43.6338 69.5496 44.3515 70.0323 45.1496C70.5151 45.9477 70.9463 46.6718 71.2488 47.2029C71.4274 47.4812 71.5824 47.774 71.7122 48.0782C71.5008 47.824 71.3123 47.5516 71.149 47.264C70.8272 46.7491 70.3735 46.0314 69.8875 45.2365C69.4015 44.4416 68.9767 43.7111 68.671 43.1801C68.4917 42.9026 68.3377 42.6097 68.2108 42.3047Z" fill="#263238"/>
<path d="M63.0015 49.6484C63.082 49.7289 63.1513 49.8198 63.2075 49.9188C63.333 50.099 63.5068 50.3661 63.7192 50.6944C64.1472 51.338 64.7233 52.2681 65.354 53.269C65.9848 54.2698 66.5448 55.1999 66.9438 55.8854C67.1434 56.2233 67.3043 56.4969 67.4105 56.6867C67.4723 56.7826 67.523 56.8852 67.5618 56.9925C67.4813 56.912 67.412 56.8211 67.3558 56.7221C67.2303 56.5419 67.0565 56.2748 66.8441 55.9465C66.4193 55.3029 65.84 54.376 65.2092 53.3719C64.5784 52.3679 64.0185 51.441 63.6194 50.7555C63.4199 50.4337 63.259 50.144 63.1528 49.9542C63.0903 49.8587 63.0395 49.756 63.0015 49.6484Z" fill="#263238"/>
<path d="M67.5029 56.7974C67.6211 56.7701 67.742 56.7561 67.8633 56.7556L68.8577 56.6912C69.6945 56.6397 70.8498 56.5657 72.1242 56.4531C73.3987 56.3404 74.5476 56.2117 75.3811 56.1313L76.3691 56.0218C76.4889 55.9987 76.6111 55.9911 76.7328 55.9993C76.619 56.0432 76.5 56.0724 76.3788 56.0862C76.1471 56.128 75.8124 56.186 75.4133 56.2503C74.583 56.3758 73.4309 56.5239 72.1532 56.6365C70.8756 56.7492 69.717 56.8039 68.877 56.8264C68.4587 56.8264 68.1175 56.8264 67.8826 56.8264C67.7553 56.8339 67.6276 56.8242 67.5029 56.7974Z" fill="#263238"/>
<path d="M35.1583 7.01557C35.2174 6.99466 35.2791 6.98167 35.3417 6.97695C35.5257 6.96124 35.7109 6.98879 35.8824 7.0574C36.1625 7.17024 36.4134 7.3452 36.6161 7.56911C36.8923 7.87694 37.1232 8.22264 37.3016 8.59573C37.7463 9.64908 38.0837 10.7445 38.3089 11.8655C38.6308 13.1753 38.9526 14.6814 39.1907 16.3935C39.2937 16.6413 39.4836 16.9245 39.7604 16.9374C39.9032 16.9285 40.0396 16.8744 40.1498 16.7829C40.2721 16.696 40.3944 16.5995 40.5134 16.4997C40.7582 16.2922 41.0162 16.1009 41.2858 15.9269C41.4236 15.8268 41.5799 15.7551 41.7456 15.7159C41.9114 15.6767 42.0832 15.6707 42.2513 15.6984C42.4201 15.7553 42.5758 15.8457 42.709 15.964C42.8423 16.0823 42.9504 16.2262 43.0269 16.3871C43.1731 16.7174 43.2318 17.0799 43.1974 17.4395C43.1588 18.1636 42.8756 18.8523 42.6664 19.5603C42.4572 20.2683 42.2191 20.9988 41.9842 21.7423C41.8683 22.1156 41.7525 22.4921 41.6334 22.8719C41.5754 23.0617 41.5143 23.2516 41.4564 23.4447C41.4219 23.5349 41.3981 23.6289 41.3856 23.7247C41.3785 23.8134 41.3917 23.9025 41.4242 23.9854C41.4918 24.1463 41.6977 24.1109 41.8651 24.0143L42.4058 23.715C42.7749 23.5094 43.1552 23.3246 43.545 23.1615C43.9436 22.9849 44.3689 22.8761 44.8034 22.8397C45.0303 22.823 45.2582 22.8582 45.4695 22.9427C45.6864 23.033 45.8681 23.191 45.9877 23.3932C46.2 23.8029 46.2756 24.2698 46.2033 24.7256C46.155 25.178 46.0612 25.6244 45.9233 26.0579C45.6431 26.936 45.2889 27.7887 44.8645 28.6068C44.7521 28.8061 44.6553 29.0137 44.5749 29.2279C44.5409 29.3203 44.5409 29.4219 44.5749 29.5143C44.5981 29.5578 44.6286 29.5969 44.665 29.6302C44.6843 29.6302 44.7004 29.6302 44.7551 29.6302C44.9648 29.5393 45.1634 29.4249 45.3472 29.289L45.9297 28.8803C46.321 28.591 46.7391 28.3399 47.1784 28.1305C47.4055 28.0236 47.6475 27.952 47.8961 27.9181C48.0276 27.8969 48.162 27.9037 48.2907 27.9381C48.4194 27.9725 48.5393 28.0337 48.6427 28.1176C48.8434 28.2938 48.9718 28.5379 49.0032 28.8031C49.0229 28.9299 49.0348 29.0578 49.0386 29.1861C49.0386 29.3116 49.0386 29.4371 49.0193 29.5626C48.9617 30.0637 48.8417 30.5556 48.662 31.0269C48.3071 31.9802 47.8358 32.886 47.2589 33.7238C46.6765 34.5796 46.0311 35.3907 45.3279 36.1503C44.9773 36.5353 44.6067 36.9016 44.2176 37.2478L43.0687 38.3259L43.0333 38.3581H42.9883L42.7759 38.2937L41.2568 37.8335L40.5038 37.605C40.256 37.5213 40.0146 37.4151 39.7668 37.3218C38.8022 36.9356 37.8647 36.4851 36.9605 35.9733C36.0677 35.4714 35.2362 34.8677 34.4824 34.1743C34.1099 33.8284 33.7784 33.4407 33.4944 33.019C33.3559 32.8031 33.2476 32.5692 33.1726 32.3239C33.0876 32.0672 33.1072 31.7873 33.2273 31.545C33.299 31.4306 33.3928 31.3318 33.5034 31.2544C33.614 31.177 33.739 31.1226 33.871 31.0945C34.1159 31.0323 34.3681 31.0031 34.6208 31.0076C35.1091 31.0198 35.5955 31.0715 36.0755 31.1621L36.7835 31.2779C36.9026 31.294 37.0184 31.3101 37.1343 31.3165C37.2403 31.34 37.3501 31.34 37.4561 31.3165C37.4786 31.3165 37.4561 31.3165 37.4754 31.3004C37.4854 31.2777 37.4929 31.254 37.4979 31.2296C37.5093 31.1831 37.5093 31.1346 37.4979 31.088C37.4591 30.991 37.3973 30.9048 37.3177 30.837C37.1536 30.6922 36.9444 30.5635 36.761 30.4219C36.0076 29.8768 35.2985 29.2731 34.6401 28.6164C34.3177 28.2938 34.0277 27.9402 33.7744 27.5608C33.497 27.1887 33.3459 26.7377 33.3432 26.2736C33.3587 26.0336 33.4564 25.8063 33.6199 25.6299C33.7807 25.4659 33.9766 25.3404 34.1928 25.263C34.6073 25.1192 35.0415 25.04 35.4801 25.0281C35.9092 25.0114 36.339 25.0178 36.7674 25.0474C36.9766 25.0474 37.1858 25.0764 37.3885 25.0796C37.4772 25.0872 37.5661 25.0669 37.6428 25.0217C37.6725 24.9981 37.6945 24.9663 37.706 24.9301C37.7175 24.894 37.7179 24.8553 37.7071 24.8189C37.6512 24.6344 37.5386 24.4723 37.3853 24.3555L36.9573 23.9275L36.1205 23.0811L34.5114 21.4494C33.9659 20.9545 33.473 20.4044 33.0407 19.8081C32.8402 19.5064 32.7155 19.1609 32.677 18.8008C32.6673 18.6237 32.6944 18.4465 32.7564 18.2804C32.8184 18.1143 32.9141 17.9627 33.0374 17.8353C33.1793 17.735 33.3398 17.6639 33.5094 17.6264C33.679 17.5888 33.8545 17.5854 34.0254 17.6165C34.351 17.6562 34.6735 17.7174 34.9909 17.7999C35.1422 17.8353 35.2967 17.8707 35.4447 17.8932C35.5838 17.9289 35.7303 17.9233 35.8663 17.8771C36.1205 17.7613 36.1591 17.4105 36.1334 17.1466C35.5316 15.5375 35.1229 14.0571 34.7785 12.7666C34.4498 11.6781 34.2267 10.5605 34.1123 9.42925C34.0576 8.5024 34.2733 7.76864 34.6047 7.4082C34.723 7.26496 34.8759 7.1542 35.0488 7.08637C35.1049 7.06166 35.1648 7.04643 35.2259 7.04132C35.166 7.05413 35.1077 7.07356 35.0521 7.09924C34.8867 7.17088 34.741 7.28126 34.6273 7.42107C34.3054 7.77829 34.1027 8.5024 34.167 9.4196C34.2894 10.5452 34.5201 11.6563 34.8558 12.7376C35.2065 14.0249 35.6249 15.5053 36.2267 17.1048C36.2455 17.2596 36.2367 17.4164 36.201 17.5682C36.1826 17.6494 36.1465 17.7255 36.0953 17.7911C36.0441 17.8567 35.9791 17.9103 35.9049 17.9479C35.7498 18.0027 35.5822 18.0117 35.4222 17.9737C35.2677 17.948 35.1003 17.9125 34.9587 17.8804C34.6506 17.8016 34.3378 17.7425 34.0222 17.7034C33.8672 17.6745 33.7081 17.6767 33.5539 17.7099C33.3998 17.743 33.2538 17.8064 33.1243 17.8965C33.0119 18.0133 32.9252 18.1525 32.8697 18.3049C32.8143 18.4573 32.7914 18.6197 32.8025 18.7815C32.8411 19.1216 32.9615 19.4473 33.1533 19.7309C33.5798 20.3163 34.0662 20.8556 34.6047 21.34L36.2332 22.9716L37.0731 23.8148L37.5012 24.2428C37.6727 24.3796 37.7975 24.5663 37.8584 24.7771C37.8753 24.8401 37.8727 24.9068 37.8508 24.9683C37.829 25.0298 37.789 25.0832 37.7361 25.1214C37.6349 25.1839 37.5168 25.2131 37.3982 25.2051C37.1858 25.2051 36.983 25.1826 36.7738 25.1729C36.3587 25.1504 35.9371 25.1375 35.5155 25.1568C35.0933 25.1696 34.6755 25.2466 34.2765 25.3853C34.082 25.4527 33.905 25.5627 33.7583 25.7071C33.6194 25.8583 33.5365 26.0526 33.5234 26.2575C33.528 26.6885 33.6701 27.1068 33.9289 27.4514C34.1786 27.8229 34.4643 28.1689 34.7817 28.4845C35.4331 29.1354 36.1359 29.7327 36.8832 30.2706C37.0699 30.4122 37.263 30.5313 37.4529 30.6954C37.5559 30.7801 37.6339 30.8914 37.6782 31.0172C37.6941 31.0871 37.6941 31.1597 37.6782 31.2296C37.6715 31.2634 37.6629 31.2967 37.6524 31.3294C37.6325 31.3753 37.5972 31.4129 37.5526 31.4356C37.4258 31.4754 37.2917 31.4864 37.16 31.4678C37.0345 31.4678 36.9154 31.4421 36.7964 31.426L36.0851 31.3133C35.6138 31.2234 35.1359 31.1717 34.6562 31.1588C34.4189 31.1563 34.1821 31.1833 33.9514 31.2393C33.7302 31.2883 33.5371 31.4224 33.414 31.6126C33.1984 32.0246 33.4333 32.5202 33.6811 32.9192C33.9565 33.3312 34.2807 33.7083 34.6466 34.0424C35.3909 34.728 36.2128 35.3242 37.0957 35.8189C37.992 36.327 38.9221 36.7732 39.8794 37.1544C40.124 37.2478 40.3622 37.354 40.61 37.4376L41.3598 37.6629L42.8756 38.1231L43.088 38.1875L43.0076 38.2068L44.15 37.1319C44.5388 36.7877 44.9084 36.4224 45.2571 36.0377C45.9484 35.2842 46.583 34.4807 47.1559 33.6337C47.7267 32.8085 48.1926 31.9156 48.5429 30.9754C48.7183 30.5167 48.8351 30.0377 48.8905 29.5497C48.8905 29.4306 48.8905 29.3084 48.9098 29.1893C48.9058 29.0708 48.895 28.9526 48.8776 28.8353C48.8522 28.6079 48.7433 28.398 48.5719 28.2463C48.4853 28.1765 48.3849 28.1257 48.2773 28.0974C48.1697 28.0692 48.0573 28.064 47.9476 28.0822C47.716 28.1144 47.4905 28.1806 47.2782 28.2785C46.8498 28.4861 46.4415 28.7328 46.0585 29.0155L45.4534 29.4113C45.255 29.5582 45.0387 29.6793 44.8098 29.7718C44.7726 29.779 44.7343 29.779 44.6971 29.7718C44.665 29.7718 44.5845 29.7396 44.5684 29.7203C44.5172 29.6746 44.4747 29.6201 44.4429 29.5594C44.3881 29.433 44.3823 29.2907 44.4268 29.1603C44.5098 28.9378 44.611 28.7226 44.7293 28.5167C45.1481 27.706 45.499 26.8621 45.7785 25.9936C45.9134 25.5748 46.0061 25.1435 46.0552 24.7063C46.1233 24.2825 46.0569 23.8481 45.8654 23.464C45.7528 23.2929 45.5946 23.1566 45.4086 23.0708C45.2226 22.9849 45.0163 22.9528 44.813 22.9781C44.3938 23.019 43.9841 23.1277 43.5997 23.2999C43.2167 23.4604 42.8428 23.6419 42.4798 23.8438L41.9327 24.1431C41.835 24.2013 41.7245 24.2345 41.6109 24.2396C41.5441 24.2454 41.4772 24.2302 41.4196 24.1962C41.3619 24.1621 41.3162 24.1109 41.289 24.0497C41.2125 23.8404 41.2205 23.6095 41.3116 23.4061C41.3727 23.213 41.4338 23.0231 41.4918 22.8332C41.6119 22.4513 41.731 22.0748 41.849 21.7036C42.0807 20.957 42.3092 20.2286 42.5345 19.5184C42.7437 18.8072 43.0269 18.1314 43.0655 17.4298C43.1 17.0916 43.0468 16.7502 42.911 16.4386C42.8434 16.2902 42.7468 16.1567 42.6269 16.0462C42.5069 15.9357 42.3661 15.8502 42.2127 15.7949C42.0574 15.7701 41.8988 15.776 41.7458 15.8125C41.5928 15.8489 41.4486 15.9151 41.3212 16.0073C41.056 16.1783 40.8023 16.3665 40.5617 16.5705C40.4394 16.6671 40.3171 16.7636 40.1884 16.857C40.0587 16.9599 39.9 17.0195 39.7346 17.0275C39.6525 17.0209 39.5726 16.9978 39.4997 16.9596C39.4267 16.9215 39.3621 16.8691 39.3098 16.8055C39.2081 16.6895 39.1275 16.5566 39.0717 16.4128C38.8464 14.7072 38.5149 13.1946 38.2124 11.8912C37.9961 10.7731 37.6672 9.6798 37.2308 8.62791C37.061 8.25623 36.8376 7.91144 36.5679 7.60451C36.371 7.38188 36.1269 7.20597 35.8534 7.08959C35.6345 6.99514 35.3921 6.96933 35.1583 7.01557Z" fill="#263238"/>
<path d="M36.0386 10.5312C36.0522 10.5565 36.0619 10.5836 36.0676 10.6117L36.1384 10.8499C36.2027 11.0751 36.2864 11.3809 36.3958 11.7735C36.6147 12.5748 36.9236 13.7366 37.2969 15.1752C38.0403 18.0523 39.0348 22.0397 40.1097 26.439L42.8806 37.719C43.2346 39.1543 43.5242 40.3161 43.727 41.1368C43.8235 41.5294 43.8976 41.8416 43.9523 42.0668C43.9748 42.1666 43.9941 42.2438 44.007 42.3082C44.012 42.3369 44.012 42.3664 44.007 42.3951C43.9942 42.3695 43.9844 42.3425 43.978 42.3146L43.9072 42.0765C43.8461 41.8512 43.7592 41.5423 43.6498 41.1529C43.4309 40.3515 43.1252 39.1897 42.7519 37.7512C42.0052 34.8547 41.014 30.8867 39.9359 26.4873C38.8578 22.088 37.8794 18.1199 37.1682 15.2235C36.811 13.7913 36.5246 12.6295 36.3186 11.8089C36.2253 11.413 36.148 11.1041 36.0933 10.8788C36.0708 10.7791 36.0547 10.6986 36.0386 10.6342C36.0343 10.6 36.0343 10.5654 36.0386 10.5312Z" fill="#263238"/>
<path d="M34.9153 18.9453C35.1383 19.0415 35.3481 19.1659 35.5396 19.3154C35.9129 19.5632 36.4182 19.9269 36.9621 20.342C37.5059 20.7572 37.9919 21.1369 38.3427 21.4137C38.5423 21.5529 38.7287 21.7102 38.8994 21.8836C38.6686 21.7895 38.452 21.6639 38.2558 21.5103C37.8857 21.256 37.3869 20.8891 36.843 20.474L35.4559 19.412C35.2591 19.2768 35.0777 19.1203 34.9153 18.9453Z" fill="#263238"/>
<path d="M39.0998 21.7678C39.54 20.9517 40.029 20.1628 40.5641 19.4056C41.0542 18.6175 41.5916 17.8598 42.1733 17.1367C41.7313 17.9518 41.2424 18.7406 40.709 19.4989C40.2179 20.2863 39.6805 21.0439 39.0998 21.7678Z" fill="#263238"/>
<path d="M40.4534 28.594C40.4244 28.5522 41.2837 27.8699 42.2846 26.9623C43.2854 26.0548 44.0514 25.2696 44.09 25.3017C43.9626 25.5074 43.809 25.6957 43.633 25.8617C43.3337 26.1835 42.9025 26.6309 42.3972 27.0846C41.8919 27.5384 41.4124 27.9278 41.0552 28.1949C40.872 28.3525 40.6698 28.4866 40.4534 28.594Z" fill="#263238"/>
<path d="M36.1259 26.8672C36.3471 26.905 36.5632 26.9687 36.7695 27.0571C37.1686 27.1922 37.7125 27.3789 38.3111 27.6235C38.9096 27.8681 39.4471 28.0676 39.8365 28.2349C40.0525 28.3076 40.2581 28.4082 40.448 28.5342C40.2272 28.4942 40.0114 28.4305 39.8043 28.3444C39.4085 28.2092 38.8614 28.0225 38.2628 27.7779C37.6642 27.5334 37.1267 27.3306 36.7405 27.1665C36.5234 27.0941 36.3168 26.9934 36.1259 26.8672Z" fill="#263238"/>
<path d="M36.5623 33.0273C36.8484 33.0847 37.1285 33.1687 37.399 33.2784C37.9075 33.4522 38.6091 33.7032 39.3782 33.9896C40.1474 34.276 40.8393 34.5464 41.3381 34.7491C41.6145 34.8424 41.8808 34.9632 42.133 35.1095C41.8474 35.0503 41.5674 34.9663 41.2963 34.8585C40.7878 34.6847 40.0895 34.4337 39.3171 34.1473C38.5447 33.8609 37.856 33.5905 37.3572 33.3878C37.0808 33.2945 36.8145 33.1737 36.5623 33.0273Z" fill="#263238"/>
<path d="M42.0156 35.0241C42.211 34.7912 42.4264 34.5758 42.6593 34.3804C43.0744 34.0007 43.6473 33.4761 44.2684 32.8807C44.8895 32.2853 45.4398 31.7382 45.8389 31.3392C46.0423 31.1132 46.264 30.9044 46.5018 30.7148C46.335 30.9712 46.1408 31.2086 45.9226 31.4229C45.546 31.8412 45.0054 32.4044 44.3842 33.003C43.7631 33.6016 43.1742 34.1101 42.7397 34.4705C42.517 34.6782 42.2744 34.8636 42.0156 35.0241Z" fill="#263238"/>
<path d="M44.892 61.3088C49.5939 56.7646 49.6807 49.6845 48.4707 43.5344C48.2679 42.5078 48.2068 41.4007 47.5696 40.5769C46.9324 39.753 45.6869 39.3185 44.8341 39.901C44.1261 40.387 43.9362 41.3331 43.6272 42.1377C43.2143 43.2133 42.5059 44.1505 41.5836 44.841C40.9818 45.2884 40.203 45.6295 39.495 45.3752C38.5295 45.0277 38.2238 43.8176 38.0629 42.8007C37.7625 40.8847 37.4643 38.9709 37.1682 37.0593C37.0073 36.0327 36.8464 34.9835 36.3636 34.0599C35.8809 33.1363 35.0377 32.3478 34.0175 32.2352C32.9974 32.1225 31.8806 32.8788 31.8388 33.9151C31.8674 34.3478 31.9266 34.778 32.0158 35.2024C32.0544 35.6336 31.9321 36.1357 31.5492 36.3223C31.1662 36.509 30.6995 36.2837 30.3455 36.0327C29.1194 35.1702 28.1829 33.9505 27.2979 32.734C26.4128 31.5175 25.5375 30.2624 24.4014 29.2872C23.2654 28.3121 21.785 27.6331 20.3014 27.7875C18.8178 27.942 17.405 29.1038 17.2634 30.6067C17.1218 32.1096 18.2063 33.4452 19.3134 34.4686C20.9577 35.9844 22.8123 37.2548 24.8198 38.2404C25.2005 38.3786 25.5281 38.6331 25.7563 38.9677C26.0781 39.6114 25.5503 40.3998 24.9131 40.7345C24.189 41.1143 23.3458 41.169 22.5606 41.3943C21.7753 41.6196 20.9515 42.1087 20.7873 42.9165C20.5363 44.0332 21.5919 44.9891 22.5702 45.5683C24.5331 46.7295 26.6809 47.5448 28.9198 47.9788C29.7212 48.1333 30.5547 48.2459 31.2466 48.6772C31.9386 49.1084 32.4599 49.9645 32.2121 50.7529C31.9643 51.5414 31.0535 51.9212 30.2393 51.9019C29.4251 51.8826 28.6495 51.58 27.8514 51.4062C26.3549 51.1037 24.5495 51.4964 23.8447 52.8609C23.6365 53.3244 23.539 53.8299 23.5596 54.3376C23.5803 54.8453 23.7186 55.3412 23.9637 55.7863C24.4591 56.6723 25.1278 57.4494 25.9301 58.0712C28.5991 60.3926 31.8363 61.9641 35.3113 62.625C38.7645 63.2301 41.8443 63.0434 44.9017 61.3377" fill="#455A64"/>
<path d="M18.5035 28.9453C18.5394 28.9758 18.5782 29.0027 18.6193 29.0258L18.9701 29.2478C19.2759 29.4441 19.7296 29.7306 20.3025 30.1135C21.9239 31.1956 23.4622 32.3972 24.9046 33.7083C25.8218 34.5354 26.7905 35.4816 27.801 36.5178C28.8115 37.5541 29.9025 38.6741 30.9967 39.8906C32.1476 41.1562 33.2295 42.483 34.2375 43.8651C34.7588 44.586 35.2448 45.3487 35.7404 46.1179C36.236 46.887 36.7348 47.6852 37.2401 48.4865C39.1647 51.4787 40.9203 54.5763 42.4987 57.7647C43.7738 60.3763 44.8027 63.1011 45.5721 65.9036C46.0841 67.8009 46.4298 69.7392 46.6052 71.6965C46.6631 72.3884 46.6985 72.9259 46.7082 73.3056C46.7082 73.4794 46.7082 73.6274 46.7243 73.7208C46.7208 73.7679 46.7208 73.8152 46.7243 73.8624C46.7284 73.8153 46.7284 73.7679 46.7243 73.7208C46.7243 73.6178 46.7243 73.4794 46.7243 73.3056C46.7243 72.9387 46.705 72.3981 46.6567 71.6965C46.5125 69.7401 46.1893 67.801 45.6912 65.9036C44.9401 63.0847 43.9206 60.3442 42.6468 57.7196C41.0833 54.5154 39.3373 51.4036 37.4171 48.3996C36.9108 47.5972 36.4109 46.8076 35.9174 46.031C35.4218 45.2522 34.9294 44.483 34.4048 43.7621C33.3909 42.3752 32.3015 41.0452 31.1415 39.7779C30.0409 38.5614 28.9531 37.4479 27.9233 36.4116C26.8934 35.3754 25.9215 34.4356 24.9947 33.6118C23.54 32.31 21.9839 31.1262 20.3411 30.0717C19.7618 29.6952 19.3016 29.428 18.9894 29.235L18.629 29.029C18.5905 28.9964 18.5484 28.9683 18.5035 28.9453Z" fill="#263238"/>
<path d="M34.35 43.7582C34.3759 43.6084 34.3856 43.4563 34.379 43.3045C34.379 43.0116 34.379 42.59 34.379 42.0654C34.3597 41.0227 34.2824 39.5809 34.1891 37.9911C34.0958 36.4013 34.041 34.9595 34.0378 33.9168C34.0378 33.3987 34.0378 32.9739 34.0378 32.6842C34.0537 32.5334 34.0537 32.3813 34.0378 32.2305C33.9999 32.3778 33.9794 32.529 33.9767 32.681C33.9509 32.9707 33.9284 33.3955 33.9155 33.9168C33.8834 34.9628 33.9155 36.4077 34.0121 38.0008C34.1086 39.5938 34.1923 40.9873 34.2567 42.0719C34.2824 42.561 34.3049 42.973 34.3243 43.3045C34.3142 43.4562 34.3228 43.6086 34.35 43.7582Z" fill="#263238"/>
<path d="M20.755 43.4258C20.9344 43.4361 21.1145 43.4286 21.2924 43.4033C21.6368 43.3808 22.1324 43.3421 22.7471 43.3132C23.9764 43.2488 25.6757 43.2166 27.5551 43.2649C29.4346 43.3132 31.1306 43.4355 32.3567 43.5578C32.9714 43.6125 33.467 43.6736 33.8082 43.7122C33.9857 43.7422 34.1656 43.7562 34.3456 43.7541C34.1746 43.699 33.9991 43.6591 33.821 43.635C33.4799 43.5739 32.9843 43.4966 32.3728 43.4226C31.1467 43.2649 29.4442 43.1233 27.5455 43.0718C25.9356 43.0233 24.3243 43.0587 22.7181 43.178C22.1034 43.2231 21.6078 43.281 21.2635 43.3293C21.0916 43.3475 20.9215 43.3798 20.755 43.4258Z" fill="#263238"/>
<path d="M42.4682 57.4822C42.4978 57.4265 42.5194 57.3669 42.5325 57.3052C42.5712 57.1668 42.6226 56.9833 42.6806 56.7935C42.8061 56.3461 42.9734 55.6928 43.1697 54.8883C43.5592 53.2791 44.0322 51.0264 44.5182 48.5419C45.0041 46.0574 45.4515 43.8046 45.8055 42.1858C45.9825 41.3974 46.1273 40.7505 46.2335 40.2549C46.2786 40.0457 46.3172 39.8751 46.3494 39.7335C46.3661 39.6727 46.3748 39.61 46.3751 39.5469C46.3455 39.6026 46.3238 39.6622 46.3108 39.7239C46.2721 39.8623 46.2206 40.0296 46.1627 40.2356C46.0372 40.6829 45.8699 41.333 45.6735 42.1408C45.2841 43.7499 44.8111 46.0027 44.3251 48.4904C43.8391 50.9781 43.3918 53.2244 43.0378 54.8432C42.8608 55.6317 42.716 56.2785 42.6098 56.7741C42.5647 56.9833 42.5261 57.1539 42.4939 57.2955C42.4772 57.3563 42.4685 57.4191 42.4682 57.4822Z" fill="#263238"/>
<path d="M24.0296 54.6725C24.0882 54.6964 24.15 54.7116 24.213 54.7175L24.7505 54.8044L26.7265 55.1263C28.3935 55.3837 30.6946 55.7699 33.2337 56.1883C35.7729 56.6067 38.0804 56.9735 39.7539 57.1956C40.5907 57.3082 41.2697 57.3919 41.7396 57.4402L42.2802 57.4917C42.3433 57.4994 42.4071 57.4994 42.4701 57.4917C42.4101 57.4685 42.3474 57.4533 42.2835 57.4466L41.7492 57.3597L39.7732 57.054C38.1062 56.7997 35.8051 56.4103 33.2627 55.992C30.7203 55.5736 28.4193 55.2067 26.7458 54.9846C25.909 54.872 25.23 54.7883 24.7601 54.7401L24.2194 54.6886C24.1571 54.6754 24.0933 54.67 24.0296 54.6725Z" fill="#263238"/>
<path d="M86.1485 80.2873C85.9601 80.2331 85.7674 80.1954 85.5724 80.1746L64.5219 71.3438H43.5776L22.9357 79.4988C20.8407 80.1972 17.8509 84.2843 19.5469 89.1696C19.592 89.308 19.6435 89.4399 19.695 89.5687C21.0499 92.9671 24.8152 94.7404 28.3488 93.7749C31.2002 93.0154 35.297 91.8987 39.5161 90.7433H39.9892L53.1197 87.0166L64.3031 90.0965C70.1442 91.7056 76.6901 93.4917 80.7322 94.5731C84.2723 95.516 88.0344 93.7492 89.3893 90.3507C89.4408 90.222 89.4891 90.09 89.5373 89.9549C91.2333 85.0857 88.2436 80.9824 86.1485 80.2873Z" fill="#455A64"/>
<path d="M52.9593 87.0609C52.9593 87.0609 52.9818 87.0609 53.0301 87.032L53.2425 86.9676L54.076 86.723L57.2202 85.8284L57.1848 85.8895C56.6442 83.8974 55.9201 81.2488 55.0865 78.1882L55.1606 78.2429H53.0043C52.2609 78.2429 51.5046 78.3105 50.7258 78.3427L45.8791 78.6098C39.8932 78.9574 34.4801 79.3597 30.5635 79.6783L25.926 80.0613L24.6645 80.1642L24.3426 80.1868H24.2332C24.2687 80.1756 24.3055 80.1691 24.3426 80.1675L24.6645 80.1288L25.9228 79.9937C27.017 79.8842 28.6004 79.7298 30.5571 79.556C34.4705 79.2084 39.89 78.7868 45.8727 78.4393L50.7226 78.1786C51.4982 78.1464 52.2609 78.0917 53.0043 78.082H55.2217V78.14C56.0359 81.2037 56.7407 83.8588 57.2685 85.8637V85.912H57.2202L54.0631 86.7616L53.2232 86.9805L53.0075 87.0352L52.9593 87.0609Z" fill="#263238"/>
<path d="M46.1351 78.4431C45.6809 78.2394 45.2633 77.9621 44.8993 77.6225C44.498 77.326 44.1497 76.9636 43.8695 76.5508C44.2662 76.8427 44.6455 77.1576 45.0055 77.4937C45.4015 77.7863 45.7787 78.1034 46.1351 78.4431Z" fill="#263238"/>
<path d="M83.6674 81.0473C83.571 81.0551 83.4741 81.0551 83.3777 81.0473L82.5539 80.999L79.5191 80.7898L69.5103 80.1172L59.4984 79.5122L56.4764 79.3255L55.6493 79.2708C55.5532 79.2674 55.4574 79.2566 55.3629 79.2386C55.4594 79.233 55.5561 79.233 55.6526 79.2386L56.4764 79.2644L59.5177 79.3899C62.0923 79.5089 65.6323 79.7117 69.5361 79.9466C73.4398 80.1815 76.9831 80.4615 79.5416 80.6707L82.57 80.9314L83.3938 81.0119C83.4858 81.0161 83.5773 81.028 83.6674 81.0473Z" fill="#263238"/>
<path d="M84.225 83.1334C84.1662 82.7984 84.0866 82.4673 83.9869 82.1421C83.8452 81.8372 83.6862 81.5406 83.5106 81.2539C83.8204 81.4415 84.0498 81.7374 84.1542 82.0842C84.3087 82.4126 84.334 82.7872 84.225 83.1334Z" fill="#263238"/>
<path d="M53.3054 80.6429C53.5452 80.4076 53.843 80.2399 54.1686 80.1568C54.4941 80.0737 54.8358 80.0782 55.1591 80.1698C55.1591 80.2181 54.7182 80.1698 54.2097 80.3211C53.7012 80.4723 53.3343 80.6847 53.3054 80.6429Z" fill="#263238"/>
<path d="M53.8759 81.9709C54.1461 81.8564 54.4355 81.7942 54.7288 81.7875C55.0165 81.7239 55.3139 81.7173 55.6041 81.7682C55.334 81.8827 55.0446 81.945 54.7513 81.9516C54.4636 82.0153 54.1662 82.0218 53.8759 81.9709Z" fill="#263238"/>
<path d="M54.1313 83.5139C54.1313 83.4657 54.5979 83.4528 55.1418 83.2919C55.6857 83.131 56.0912 82.8992 56.1073 82.9379C55.841 83.1771 55.5241 83.3532 55.1803 83.453C54.8365 83.5527 54.4746 83.5735 54.1216 83.5139H54.1313Z" fill="#263238"/>
<path d="M54.6453 85.1787C54.6453 85.1304 55.0926 85.0918 55.6108 84.8987C56.1289 84.7056 56.4861 84.4417 56.5151 84.4804C56.304 84.7588 56.0081 84.9611 55.6719 85.0564C55.3518 85.2067 54.9917 85.2496 54.6453 85.1787Z" fill="#263238"/>
<path d="M64.2413 77.6445C64.0319 77.9851 63.7951 78.308 63.5332 78.61C63.3159 78.95 63.0727 79.2727 62.8059 79.5755C63.1097 78.8187 63.6042 78.1535 64.2413 77.6445Z" fill="#263238"/>
<path d="M105.499 57.6708C104.997 57.6998 101.145 58.3434 101.145 58.3434C105.931 57.0561 106.095 56.509 105.973 56.1614C105.85 55.8139 101.502 57.0143 101.502 57.0143C101.789 56.5143 101.967 55.9593 102.024 55.3858C102.136 53.9859 100.489 52.7115 99.9705 52.9014C99.4523 53.0912 99.6648 53.7671 99.6648 53.7671C101.193 54.5555 100.952 56.406 99.6648 56.9628C98.3775 57.5195 97.6855 55.9072 98.4289 55.2282C100.061 53.7381 99.0726 53.4452 99.0726 53.4452L95.4521 56.6635C95.4167 56.6796 92.5202 57.4101 92.5202 57.4101L80.1332 59.8785L75.0741 52.4766L69.764 57.2492C69.764 57.2492 70.7295 58.3917 74.9325 64.0751C75.7456 65.1818 76.8808 66.0102 78.1828 66.4468C79.4847 66.8835 80.8899 66.9072 82.2058 66.5145L94.5284 62.8071L94.551 62.8651V62.8232L101.406 61.066C101.406 61.066 103.614 60.4224 104.132 60.284C104.817 60.0909 104.775 59.5631 104.215 59.547C104.006 59.547 101.435 59.6307 101.435 59.6307L105.274 58.5719C106.468 58.2372 105.985 57.6483 105.499 57.6708Z" fill="#FFBE9D"/>
<path d="M36.1432 49.3398L31.0874 56.7418L18.7003 54.2702C18.7003 54.2702 15.8039 53.5525 15.7395 53.53L12.119 50.3118C12.119 50.3118 11.1535 50.6046 12.7627 52.0947C13.5061 52.7737 12.8013 54.3861 11.5269 53.8293C10.2524 53.2725 10.0143 51.4253 11.5269 50.6336C11.5269 50.6336 11.7393 49.961 11.205 49.7711C10.6708 49.5812 9.03915 50.8524 9.15179 52.2524C9.20847 52.8269 9.38616 53.383 9.67315 53.884C9.67315 53.884 5.31565 52.6804 5.20301 53.028C5.09037 53.3755 5.2545 53.9355 10.0304 55.2099C10.0304 55.2099 6.16848 54.5663 5.67609 54.5405C5.1837 54.5148 4.71062 55.1037 5.91424 55.4384L9.81153 56.5133C9.81153 56.5133 7.23694 56.4264 7.03097 56.4329C6.48387 56.4329 6.42916 56.9735 7.11465 57.1666L9.8405 57.9487L16.6954 59.709V59.7509L16.7179 59.6897L29.0405 63.4004C30.3556 63.787 31.7578 63.7591 33.0564 63.3203C34.355 62.8815 35.4868 62.0531 36.2977 60.9481C40.5072 55.2646 41.4662 54.1222 41.4662 54.1222L36.1432 49.3398Z" fill="#FFBE9D"/>
<path d="M65.8316 71.8234L63.7494 62.4905C63.8556 61.1871 65.3585 52.9484 65.5451 52.4592L72.3228 62.3296L80.2397 58.9987C80.2397 58.9987 73.5135 47.7348 70.5849 43.5157C66.9869 38.3504 59.9647 37.7969 59.9647 37.7969L50.915 37.9192C50.915 37.9192 44.5944 36.516 38.2512 45.0347L30.9748 56.5142L37.2246 59.6938C37.513 59.8514 37.8475 59.9033 38.1701 59.8404C38.4927 59.7775 38.7833 59.6039 38.9914 59.3495L44.1245 53.0932L45.6821 61.9144L43.5163 69.4C43.5163 69.4 41.5403 69.6607 41.9071 72.068C41.9071 72.068 48.3436 75.0931 54.4132 74.7198C60.4828 74.3465 65.8316 71.8234 65.8316 71.8234Z" fill="#2D719B"/>
<path d="M62.4548 56.6211C62.4509 56.6744 62.4379 56.7267 62.4162 56.7756C62.384 56.8721 62.3389 57.0169 62.2649 57.2004C62.0625 57.7151 61.8204 58.2133 61.5408 58.6904C60.6199 60.2803 59.3331 61.6276 57.7872 62.6205C56.2413 63.6134 54.4809 64.2233 52.652 64.3996C52.1015 64.4564 51.5473 64.4693 50.9946 64.4382C50.7983 64.4382 50.6471 64.406 50.5473 64.3964C50.4937 64.3964 50.4404 64.3877 50.3896 64.3706C50.5922 64.3602 50.7952 64.3602 50.9979 64.3706C51.5463 64.3764 52.0946 64.3463 52.6392 64.2805C54.4409 64.0749 56.1714 63.4584 57.6974 62.4787C59.2234 61.4989 60.5042 60.182 61.4411 58.6293C61.7274 58.1619 61.9823 57.676 62.2038 57.1746C62.2774 56.9857 62.3612 56.8009 62.4548 56.6211Z" fill="#263238"/>
<path d="M73.2633 62.0584C73.2279 62.0873 72.9769 61.8299 72.7709 61.4405C72.6209 61.2163 72.5383 60.9538 72.5327 60.6842C72.5778 60.6681 72.7194 60.9867 72.9189 61.36C73.0636 61.5768 73.1794 61.8116 73.2633 62.0584Z" fill="#263238"/>
<path d="M74.8667 61.3201C74.8249 61.3394 74.6639 61.0466 74.4708 60.6925C74.3247 60.4868 74.2157 60.2569 74.149 60.0135C74.1844 59.9877 74.4097 60.2452 74.6092 60.6121C74.7576 60.8204 74.8465 61.0651 74.8667 61.3201Z" fill="#263238"/>
<path d="M76.7247 60.3338C76.6893 60.3596 76.4608 60.0892 76.2195 59.732C76.0496 59.5287 75.9245 59.2918 75.8526 59.0369C75.8912 59.0111 76.1197 59.2814 76.3579 59.6387C76.5278 59.8419 76.6528 60.0788 76.7247 60.3338Z" fill="#263238"/>
<path d="M78.5535 59.4324C78.5084 59.4324 78.3764 59.1717 78.2059 58.837C78.0353 58.5023 77.8841 58.2384 77.9227 58.2094C77.9613 58.1805 78.1769 58.4154 78.3539 58.763C78.4866 58.9608 78.5562 59.1942 78.5535 59.4324Z" fill="#263238"/>
<path d="M32.1856 56.8157C32.147 56.7899 32.2789 56.526 32.4817 56.2235C32.6844 55.921 32.8743 55.6989 32.9129 55.7247C32.9515 55.7504 32.8196 56.0143 32.6201 56.3168C32.4205 56.6194 32.2242 56.8414 32.1856 56.8157Z" fill="#263238"/>
<path d="M34.7235 56.4713C34.6381 56.7341 34.4989 56.9763 34.3148 57.1825C34.0477 57.5462 33.8031 57.8261 33.7677 57.794C33.8546 57.5318 33.9937 57.2899 34.1764 57.0827C34.4435 56.7191 34.6881 56.4391 34.7235 56.4713Z" fill="#263238"/>
<path d="M36.3914 57.595C36.3652 57.8367 36.2837 58.069 36.1532 58.2741C35.9794 58.6313 35.8056 58.9177 35.7638 58.8823C35.79 58.6407 35.8715 58.4084 36.002 58.2033C36.1757 57.8461 36.3495 57.5725 36.3914 57.595Z" fill="#263238"/>
<path d="M38.0494 58.643C38.0848 58.6719 37.8981 58.9648 37.6374 59.2609C37.3768 59.5569 37.1322 59.8015 37.0968 59.7726C37.0614 59.7436 37.2448 59.4507 37.5087 59.1547C37.7726 58.8586 38.014 58.614 38.0494 58.643Z" fill="#263238"/>
<path d="M43.2816 72.4702C43.0981 72.0916 43.0372 71.6652 43.1076 71.2504C43.178 70.8356 43.3761 70.4531 43.6742 70.1562C43.5039 70.5157 43.3723 70.8922 43.2816 71.2794C43.2385 71.6752 43.2385 72.0744 43.2816 72.4702Z" fill="#263238"/>
<path d="M45.0454 73.1415C45.0261 73.1415 44.9424 73.0514 44.8684 72.8583C44.7731 72.6026 44.74 72.3279 44.7718 72.0569C44.801 71.785 44.8936 71.5238 45.0422 71.2942C45.158 71.1204 45.261 71.0432 45.2771 71.0561C45.1239 71.3788 45.0156 71.7209 44.9553 72.073C44.9346 72.4317 44.9649 72.7914 45.0454 73.1415Z" fill="#263238"/>
<path d="M47.0655 71.8438C47.1312 72.1614 47.1421 72.4879 47.0976 72.8092C47.1113 73.1366 47.0655 73.4637 46.9625 73.7747C46.8987 73.4568 46.8878 73.1306 46.9303 72.8092C46.92 72.482 46.9657 72.1555 47.0655 71.8438Z" fill="#263238"/>
<path d="M49.8283 72.4023C49.8733 72.4249 49.6706 72.8529 49.6223 73.4161C49.574 73.9793 49.6802 74.4395 49.6223 74.4524C49.4719 74.1236 49.4109 73.7609 49.4454 73.401C49.4798 73.0411 49.6086 72.6966 49.8186 72.4023H49.8283Z" fill="#263238"/>
<path d="M51.9694 72.7266C51.9796 73.0679 51.9721 73.4095 51.9469 73.75C51.9743 74.0936 51.9818 74.4385 51.9694 74.783C51.712 74.125 51.712 73.3942 51.9694 72.7362V72.7266Z" fill="#263238"/>
<path d="M54.6197 74.7169C54.5543 74.3614 54.5092 74.0026 54.4845 73.642C54.4059 73.2888 54.3511 72.9308 54.3204 72.5703C54.5093 72.8896 54.6197 73.2492 54.6422 73.6195C54.7253 73.9815 54.7176 74.3585 54.6197 74.7169Z" fill="#263238"/>
<path d="M57.4211 74.5137C57.3729 74.5137 57.4211 74.0567 57.3471 73.5128C57.2731 72.9689 57.0832 72.5473 57.1283 72.5312C57.3559 72.8041 57.4911 73.1422 57.5145 73.4967C57.5921 73.837 57.5594 74.1932 57.4211 74.5137Z" fill="#263238"/>
<path d="M60.1865 73.9232C60.1382 73.9232 60.1253 73.463 59.9934 72.9191C59.8614 72.3752 59.6716 71.9536 59.7134 71.9375C59.9477 72.2035 60.1017 72.5304 60.1575 72.8804C60.2677 73.2179 60.2777 73.5801 60.1865 73.9232Z" fill="#263238"/>
<path d="M62.5141 73.2979C62.4745 72.9573 62.4175 72.619 62.3436 72.2842C62.1827 71.7435 61.8834 71.3798 61.922 71.3477C62.1955 71.5831 62.3965 71.8914 62.5013 72.2368C62.6062 72.5821 62.6106 72.9501 62.5141 73.2979Z" fill="#263238"/>
<path d="M64.5668 72.5337C64.5186 72.5337 64.5668 72.0445 64.4252 71.4813C64.2836 70.9182 64.0294 70.5159 64.0712 70.4805C64.3238 70.751 64.5022 71.0822 64.589 71.4419C64.6759 71.8017 64.6682 72.1778 64.5668 72.5337Z" fill="#263238"/>
<path d="M72.4998 47.3131L72.4129 47.3292L72.1522 47.3613L71.1578 47.474C70.7233 47.5223 70.1923 47.577 69.5776 47.6252C68.963 47.6735 68.2582 47.7411 67.4826 47.7861C65.9282 47.8956 64.0777 47.976 62.0115 48.0211C59.9454 48.0661 57.6894 48.0404 55.3144 47.9471C52.9393 47.8537 50.6801 47.6799 48.6301 47.4836C46.5801 47.2873 44.7424 47.046 43.2041 46.811C42.4317 46.708 41.7398 46.5825 41.1284 46.4892C40.5169 46.3959 39.9923 46.2961 39.5675 46.2124L38.5827 46.0225L38.3285 45.9678L38.2416 45.9453H38.3317L38.5892 45.9839L39.5772 46.1416C40.0052 46.2156 40.5426 46.3025 41.1444 46.3926C41.7463 46.4828 42.4478 46.5954 43.2202 46.6952C44.7585 46.914 46.5994 47.1296 48.6462 47.3388C50.693 47.548 52.949 47.6896 55.3208 47.7894C57.6927 47.8891 59.9519 47.8988 62.0083 47.8763C64.0648 47.8537 65.9153 47.7701 67.4793 47.6767C68.2549 47.6413 68.9565 47.5834 69.5744 47.5416C70.1923 47.4997 70.7201 47.4579 71.1546 47.4193L72.1522 47.3388L72.4129 47.3227L72.4998 47.3131Z" fill="#263238"/>
<g opacity="0.2">
<path opacity="0.2" d="M50.7796 64.4338C50.128 64.2478 49.5264 63.9179 49.0192 63.4684C48.5494 62.9792 48.337 62.1811 48.7167 61.6147C48.8945 61.3961 49.1256 61.2271 49.3877 61.1239C49.6498 61.0207 49.9342 60.9869 50.2132 61.0257C50.7684 61.1096 51.317 61.2333 51.8545 61.3958C52.6709 61.5707 53.516 61.5605 54.3279 61.3662C55.1399 61.1718 55.898 60.7982 56.5467 60.2727C57.4929 59.4971 58.1558 58.4254 59.0344 57.5758C59.2892 57.2818 59.6387 57.0861 60.0224 57.0222C60.6918 56.9707 61.226 57.6659 61.2228 58.3449C61.2196 59.024 60.8431 59.6322 60.4279 60.1471C59.2353 61.6386 57.6986 62.8184 55.9497 63.5852C54.2008 64.3521 52.2919 64.683 50.387 64.5497" fill="black"/>
</g>
<g opacity="0.2">
<path opacity="0.2" d="M44.5902 69.8621C47.242 71.5163 50.4506 72.1149 53.5723 72.0538C56.694 71.9926 59.7803 71.3586 62.8377 70.7182C63.1206 70.687 63.3887 70.5753 63.61 70.3963C63.6625 70.3497 63.7049 70.293 63.7347 70.2295C63.7645 70.166 63.7812 70.0971 63.7836 70.0269C63.786 69.9568 63.7741 69.887 63.7487 69.8216C63.7233 69.7562 63.6849 69.6966 63.6358 69.6465C60.8102 70.8591 57.7593 71.4574 54.6851 71.4019C51.6108 71.3464 48.5834 70.6384 45.8035 69.3247C45.5066 69.1317 45.1503 69.0517 44.7994 69.0994C44.4583 69.1927 44.2459 69.6948 44.5323 69.904" fill="black"/>
</g>
<path d="M71.6893 80.9191L56.7599 84.1213L55.4179 78.9978L60.9436 78.7275C60.9436 78.7275 61.6066 77.6494 62.3757 77.7266C63.1449 77.8039 63.6984 78.7758 64.2616 78.824C64.8248 78.8723 71.8599 77.8489 71.6893 80.9191Z" fill="#FFBE9D"/>
<path d="M38.3387 44.7047C38.2518 44.8398 72.5937 47.0347 72.5937 47.0347C72.5937 47.0347 69.7617 38.3454 58.9452 37.7919C48.1286 37.2384 42.7992 37.6664 38.3387 44.7047Z" fill="#FFBE9D"/>
<path d="M59.0824 38.7418C59.15 36.4633 59.2626 34.0689 59.2626 34.0689C59.2626 34.0689 62.1784 33.6731 62.8832 29.8659C63.5558 26.2325 63.1889 17.791 63.1889 17.791C61.1567 16.8891 58.8956 16.6369 56.7146 17.069C54.5337 17.501 52.5395 18.5962 51.0046 20.2047L50.7504 38.7C50.7214 40.8465 52.5236 42.5876 54.8021 42.6101C57.1193 42.6327 59.0181 40.8948 59.0824 38.7418Z" fill="#FFBE9D"/>
<path d="M59.073 27.8005C59.3512 27.7241 59.6374 27.6809 59.9258 27.6718C60.0577 27.6718 60.1865 27.6396 60.2122 27.5495C60.2257 27.4104 60.1977 27.2705 60.1318 27.1472L59.7649 26.1077C59.2564 24.6306 58.8927 23.4141 58.9507 23.3948C59.0086 23.3755 59.472 24.5566 59.9805 26.0369C60.1028 26.4006 60.2187 26.7482 60.3313 27.0797C60.4087 27.2455 60.428 27.4325 60.386 27.6107C60.3654 27.6577 60.3345 27.6996 60.2955 27.733C60.2565 27.7664 60.2104 27.7906 60.1607 27.8038C60.0859 27.8215 60.0091 27.8291 59.9322 27.8263C59.646 27.8564 59.3569 27.8477 59.073 27.8005Z" fill="#263238"/>
<path d="M59.2616 34.0535C57.4722 34.0282 55.726 33.5007 54.2218 32.5312C54.2218 32.5312 55.3804 35.1992 59.1811 34.9578L59.2616 34.0535Z" fill="#EB996E"/>
<path d="M58.8152 29.0588C58.7204 28.9294 58.594 28.8266 58.448 28.7601C58.3021 28.6936 58.1415 28.6657 57.9817 28.679C57.866 28.6858 57.753 28.7161 57.6495 28.7681C57.546 28.8201 57.4542 28.8928 57.3798 28.9816C57.3067 29.0674 57.2618 29.1738 57.2514 29.2862C57.2411 29.3985 57.2657 29.5113 57.3219 29.6091C57.402 29.7066 57.5098 29.7776 57.631 29.8126C57.7522 29.8477 57.8812 29.8452 58.001 29.8054C58.2507 29.7246 58.4817 29.5944 58.68 29.4225C58.7413 29.3832 58.7939 29.3317 58.8345 29.2712C58.8535 29.242 58.8636 29.2079 58.8636 29.173C58.8636 29.1382 58.8535 29.1041 58.8345 29.0749" fill="#EB996E"/>
<path d="M57.5243 28.1211C57.608 28.1211 57.5951 28.6939 58.0682 29.1155C58.5413 29.5371 59.1495 29.4921 59.1527 29.5725C59.156 29.653 59.0144 29.6787 58.7569 29.6787C58.4238 29.6708 58.1039 29.5467 57.8526 29.3279C57.6112 29.1155 57.4612 28.818 57.4342 28.4976C57.4181 28.2466 57.4857 28.1211 57.5243 28.1211Z" fill="#263238"/>
<path d="M57.413 24.4777C57.413 24.4777 57.3551 24.6032 57.1813 24.7191C56.9535 24.8702 56.6856 24.9498 56.4122 24.9476C56.1379 24.946 55.8702 24.8631 55.643 24.7094C55.4724 24.5904 55.4016 24.4809 55.4145 24.4648C55.72 24.6428 56.0603 24.7526 56.4122 24.7867C56.7644 24.7584 57.1061 24.6529 57.413 24.4777Z" fill="#263238"/>
<path d="M62.7424 24.5035C62.7424 24.5035 62.6877 24.6064 62.5365 24.6966C62.3319 24.807 62.1021 24.8624 61.8697 24.8573C61.6372 24.8522 61.4101 24.7869 61.2105 24.6676C61.0593 24.571 60.9949 24.4777 61.011 24.4648C61.2855 24.583 61.5763 24.6589 61.8735 24.6901C62.171 24.6725 62.464 24.6095 62.7424 24.5035Z" fill="#263238"/>
<path d="M57.6187 22.4355C57.5801 22.5738 57.1006 22.5545 56.5374 22.6221C55.9742 22.6897 55.514 22.812 55.4432 22.6865C55.3724 22.561 55.8068 22.2005 56.4795 22.1233C57.1521 22.046 57.6606 22.3099 57.6187 22.4355Z" fill="#263238"/>
<path d="M62.7647 22.9295C62.6811 23.0454 62.2724 22.8844 61.7735 22.7686C61.2747 22.6527 60.8402 22.598 60.8081 22.4468C60.7759 22.2955 61.2747 22.1249 61.8829 22.2698C62.4912 22.4146 62.8484 22.8233 62.7647 22.9295Z" fill="#263238"/>
<path d="M63.9623 17.4819C63.3444 16.5164 62.1665 16.0594 61.0659 15.7505C59.9107 15.4289 58.7357 15.1838 57.5483 15.0167C56.8269 14.873 56.0824 14.8928 55.3696 15.0746C55.2859 15.1036 55.2087 15.1358 55.1314 15.168C53.738 15.1049 52.361 15.4895 51.2019 16.2654C50.6966 16.5507 50.2707 16.9578 49.9629 17.4497C49.5692 17.9536 49.2445 18.5077 48.9974 19.0975C47.8678 21.0735 46.3746 23.8283 46.1718 25.27C45.8532 27.5481 46.3063 29.8673 47.4591 31.8578C47.7478 32.339 48.083 32.7906 48.46 33.2062C48.1215 33.5018 47.8447 33.8613 47.6453 34.264C47.4459 34.6667 47.3278 35.1048 47.2979 35.5532C47.2681 36.0016 47.3269 36.4514 47.471 36.8771C47.6152 37.3027 47.8419 37.6957 48.1382 38.0336C47.6871 38.3975 47.3682 38.8996 47.2306 39.4625C47.1177 40.0006 47.1711 40.5603 47.3838 41.0672C47.5965 41.5742 47.9584 42.0045 48.4214 42.301L48.5952 42.3943C48.5418 42.4407 48.4923 42.4913 48.4471 42.5456C48.2661 42.7744 48.1334 43.0375 48.0571 43.3191C47.9808 43.6007 47.9624 43.8948 48.003 44.1837C48.088 44.7632 48.3085 45.3145 48.6466 45.7928C48.9524 46.2594 49.3868 46.71 49.9339 46.7583C50.011 46.7664 50.0886 46.7664 50.1657 46.7583C49.9284 46.8599 49.7284 47.0325 49.5933 47.2524C49.4581 47.4724 49.3945 47.7288 49.411 47.9864C49.4276 48.244 49.5236 48.4901 49.6859 48.6909C49.8481 48.8917 50.0686 49.0372 50.3169 49.1076C50.5096 49.1337 50.6948 49.1995 50.8608 49.3007C50.9296 49.3684 50.9808 49.4518 51.01 49.5438C51.0391 49.6358 51.0454 49.7335 51.0281 49.8285C50.9916 50.0184 50.9242 50.201 50.8286 50.3691C50.9703 50.3515 51.1038 50.2927 51.2125 50.2001C51.3211 50.1074 51.4003 49.9849 51.4401 49.8478C51.4401 50.028 51.4401 50.2082 51.4401 50.3884C51.8533 50.104 52.1556 49.6857 52.2961 49.2041C52.4714 48.7311 52.5126 48.2188 52.4152 47.7237C52.3649 47.4772 52.264 47.2438 52.1189 47.0383C51.9737 46.8328 51.7875 46.6596 51.572 46.5298C51.3643 46.414 51.1308 46.352 50.893 46.3496C51.1017 46.1347 51.2495 45.8681 51.321 45.5772C51.4161 44.5154 51.2179 43.4478 50.7482 42.4909C50.6807 42.3744 50.5997 42.2664 50.5068 42.169C50.7839 41.847 50.9764 41.461 51.0668 41.0459C51.1781 40.6557 51.2104 40.2471 51.1618 39.8443C51.1132 39.4414 50.9846 39.0523 50.7836 38.6998C50.74 38.6338 50.6927 38.5704 50.642 38.5099C50.9213 38.124 51.0934 37.6709 51.1408 37.1969C51.2798 36.5347 51.3424 35.8587 51.3274 35.1822C51.8341 34.7682 52.2272 34.2322 52.4699 33.6246C53.6446 31.0725 52.2736 27.4584 52.2736 27.4584C54.2721 25.476 54.6551 21.701 54.6937 19.4708C55.0378 19.957 55.4661 20.3778 55.9585 20.713C56.3034 20.9859 56.7357 21.1243 57.175 21.1024C57.3921 21.082 57.5922 20.9764 57.7316 20.8087C57.8709 20.641 57.9381 20.4249 57.9184 20.2077C58.1528 20.7096 58.4621 21.1729 58.8356 21.5819C59.0239 21.7849 59.255 21.9433 59.5122 22.0458C59.7694 22.1482 60.0462 22.192 60.3224 22.1741C60.5974 22.1437 60.8519 22.0142 61.0385 21.8099C61.225 21.6056 61.3308 21.3404 61.3362 21.0638C61.624 21.5287 62.0262 21.9121 62.5044 22.1773C62.7463 22.3047 63.022 22.353 63.2927 22.3155C63.5635 22.278 63.8157 22.1565 64.0138 21.9681C64.2575 21.6255 64.3849 21.2138 64.3774 20.7935C64.4901 19.651 64.5673 18.4345 63.9623 17.4819Z" fill="#263238"/>
<path d="M48.5333 31.4003C48.507 31.3628 48.4864 31.3215 48.4722 31.278C48.4237 31.1545 48.3892 31.0261 48.3692 30.895C48.3083 30.4065 48.3806 29.9105 48.5784 29.4597C48.8819 28.799 49.3204 28.2092 49.8657 27.7283C50.5185 27.153 51.1234 26.5255 51.6743 25.852C52.5889 24.5629 53.2979 23.1395 53.7758 21.6329C53.9625 21.0761 54.1202 20.6159 54.236 20.2651C54.2854 20.0958 54.3467 19.9302 54.4195 19.7695C54.3951 19.9443 54.3552 20.1167 54.3004 20.2845C54.2103 20.6063 54.0751 21.089 53.8885 21.6715C53.4394 23.206 52.7355 24.654 51.8063 25.955C51.25 26.6341 50.6363 27.2639 49.9719 27.8377C49.4356 28.3016 48.9978 28.8685 48.6846 29.5047C48.4845 29.936 48.397 30.4111 48.4303 30.8854C48.4722 31.2201 48.5526 31.3938 48.5333 31.4003Z" fill="#455A64"/>
<path d="M50.4651 38.3195C50.3876 38.3076 50.3131 38.2802 50.2463 38.2391C50.0536 38.1524 49.8711 38.0445 49.7024 37.9173C49.1349 37.4889 48.6967 36.9121 48.436 36.2506C48.1754 35.589 48.1024 34.8684 48.2252 34.168C48.2617 33.9573 48.3177 33.7504 48.3926 33.5501C48.4473 33.4117 48.4891 33.3377 48.4988 33.3441C48.5084 33.3506 48.4055 33.666 48.3411 34.1841C48.253 34.8632 48.3385 35.5534 48.5895 36.1905C48.8405 36.8276 49.2488 37.3907 49.7764 37.8272C50.1787 38.1522 50.478 38.2938 50.4651 38.3195Z" fill="#455A64"/>
<path d="M50.2683 38.8829C50.2683 38.9022 50.1267 38.9665 49.8692 38.9794C49.5303 38.9879 49.1955 38.9044 48.9003 38.7378C48.605 38.5712 48.3604 38.3277 48.1925 38.0333C48.1127 37.9177 48.069 37.7811 48.067 37.6406C48.0927 37.6406 48.1539 37.7758 48.2923 37.9624C48.4758 38.2158 48.7118 38.4265 48.9842 38.5804C49.256 38.7338 49.558 38.8261 49.8692 38.8507C50.1106 38.8796 50.2651 38.8571 50.2683 38.8829Z" fill="#455A64"/>
<path d="M48.9333 41.8401C48.9333 41.8144 49.0846 41.721 49.3034 41.5183C49.5843 41.2562 49.804 40.9355 49.9469 40.579C50.0898 40.2225 50.1525 39.8389 50.1305 39.4554C50.1044 39.2956 50.0883 39.1344 50.0822 38.9727C50.1811 39.1104 50.2391 39.2733 50.2496 39.4425C50.3075 39.8484 50.2575 40.2624 50.1048 40.6429C49.9528 41.0239 49.7017 41.3572 49.3774 41.6084C49.2538 41.7253 49.1 41.8056 48.9333 41.8401Z" fill="#455A64"/>
<path d="M50.4669 42.0632C50.4862 42.0632 50.4669 42.1887 50.3446 42.3368C50.1882 42.5314 49.9683 42.6647 49.7235 42.7133C49.478 42.7589 49.2244 42.718 49.0058 42.5974C48.8417 42.5041 48.7741 42.4043 48.7902 42.3915C48.8063 42.3786 48.8964 42.4333 49.0573 42.488C49.262 42.5678 49.4852 42.5879 49.7009 42.5459C49.9123 42.5019 50.1079 42.4019 50.2673 42.2563C50.3832 42.1437 50.4444 42.0536 50.4669 42.0632Z" fill="#455A64"/>
<path d="M50.7379 46.2103C50.4432 45.573 50.1067 44.9559 49.7305 44.363C49.3107 43.7979 48.8549 43.2605 48.366 42.7539C48.5541 42.8465 48.725 42.9706 48.8713 43.1208C49.247 43.4593 49.5818 43.8406 49.8689 44.2568C50.1563 44.6723 50.393 45.1207 50.5737 45.5924C50.6654 45.7867 50.721 45.9961 50.7379 46.2103Z" fill="#455A64"/>
<path d="M51.2319 46.3297C51.2544 46.3683 51.0452 46.5292 50.7395 46.6515C50.4338 46.7738 50.1699 46.7738 50.1634 46.7287C50.157 46.6837 50.3952 46.6 50.6848 46.497C50.9744 46.394 51.2094 46.2878 51.2319 46.3297Z" fill="#455A64"/>
<path d="M46.821 30.9113C46.8005 30.8631 46.7875 30.8121 46.7824 30.76C46.7631 30.657 46.7341 30.509 46.7052 30.3159C46.6113 29.7703 46.5585 29.2184 46.5475 28.6649C46.5189 27.8331 46.6934 27.0069 47.056 26.2577C47.281 25.8167 47.6008 25.4309 47.9925 25.1281C48.4127 24.8129 48.8672 24.5462 49.3473 24.3332C49.8192 24.1254 50.2801 23.8934 50.728 23.638C51.1383 23.3951 51.5232 23.1115 51.8769 22.7916C52.478 22.2469 52.9876 21.609 53.3862 20.9025C53.7409 20.2428 54.0174 19.5441 54.2101 18.8203C54.2102 18.8724 54.2037 18.9243 54.1908 18.9748C54.1684 19.1235 54.1372 19.2707 54.0975 19.4157C53.9572 19.9531 53.753 20.4717 53.4892 20.9604C53.0955 21.6899 52.582 22.3481 51.9702 22.9075C51.6108 23.2364 51.2195 23.5286 50.802 23.7796C50.346 24.0393 49.8765 24.2745 49.3956 24.4844C48.9274 24.6919 48.4838 24.951 48.0729 25.2568C47.6972 25.5445 47.3895 25.9115 47.1718 26.3317C46.8114 27.0559 46.6304 27.8561 46.644 28.6649C46.6456 29.2136 46.68 29.7617 46.747 30.3062L46.7921 30.7536C46.8096 30.8044 46.8194 30.8575 46.821 30.9113Z" fill="#455A64"/>
<path d="M58.2777 18.6808C58.2777 18.6808 58.2262 18.7355 58.1071 18.7902C57.9369 18.8667 57.753 18.9083 57.5664 18.9125C57.2574 18.9127 56.9516 18.8503 56.6673 18.7292C56.3831 18.608 56.1262 18.4307 55.9123 18.2077C55.5027 17.7596 55.1904 17.2314 54.9951 16.6565C54.8934 16.4298 54.822 16.1907 54.7827 15.9453C54.9108 16.1567 55.0186 16.3797 55.1045 16.6115C55.3242 17.1545 55.6379 17.6546 56.0313 18.0887C56.4351 18.5079 56.9821 18.7596 57.5632 18.7935C57.8053 18.788 58.0456 18.7501 58.2777 18.6808Z" fill="#455A64"/>
<path d="M60.5152 19.571C60.3658 19.6334 60.2022 19.6534 60.0421 19.6289C59.6506 19.5973 59.2748 19.4611 58.9538 19.2347C58.6329 19.0083 58.3785 18.6999 58.2174 18.3416C58.1384 18.1994 58.1027 18.0373 58.1144 17.875C58.193 18.0076 58.2629 18.1452 58.3236 18.2869C58.501 18.6128 58.7496 18.8944 59.0509 19.1108C59.3499 19.3228 59.6933 19.4637 60.055 19.5227C60.2095 19.5265 60.3634 19.5427 60.5152 19.571Z" fill="#455A64"/>
</g>
</svg>
